<?xml version="1.0" encoding="UTF-8"?>
<svg width="29px" height="33px" viewBox="0 0 29 33" version="1.1" xmlns="http://www.w3.org/2000/svg" xmlns:xlink="http://www.w3.org/1999/xlink">
    <!-- Generator: Sketch 3.6.1 (26313) - http://www.bohemiancoding.com/sketch -->
    <title>Group</title>
    <desc>Created with Sketch.</desc>
    <defs></defs>
    <g id="Page-1" stroke="none" stroke-width="1" fill="none" fill-rule="evenodd">
        <g id="Admin-Partner-Page" transform="translate(-863.000000, -787.000000)" fill="#363646">
            <g id="Graph-total" transform="translate(836.000000, 776.000000)">
                <g id="Group" transform="translate(27.000000, 11.000000)">
                    <path d="M23.0477341,25.5971493 C23.0360546,25.5805458 23.0235875,25.5637468 23.0103161,25.5467594 C22.3350317,24.6895983 20.0053005,24.5215276 19.0261381,24.1349648 C18.4183821,23.8996657 18.249561,23.6811736 18.1989147,23.0088905 C18.1820326,22.7063631 18.0132115,21.3617968 18.249561,21.1433048 C18.4183821,20.975234 19.4819551,21.0424623 19.7183046,21.0088482 C20.6805849,20.8911986 21.6597473,20.6895137 22.5713812,20.336565 C22.9596698,20.1853013 23.3310762,20.0004234 23.6687184,19.7651243 C24.073889,19.4625969 23.3648404,18.7230855 23.1791372,18.3197156 C22.6051455,17.0591847 22.3519138,15.6810043 22.2675032,14.3028238 C22.0986821,11.5968842 22.5207349,8.87413746 22.0142716,6.1850049 C21.3425075,2.54387781 18.7699091,0.506022352 15.3703351,0.083059025 C14.9267648,0.0260637135 14.4764373,-0.00121837461 14.0269056,4.17102484e-05 C14.0163661,1.39035138e-05 14.0058206,0 13.9952693,0 C13.0565343,0 12.1225016,0.119377493 11.2475725,0.38259157 C10.9389702,0.470307613 10.6398025,0.572633618 10.3532403,0.689077919 C3.19522564,3.54628127 7.41575317,12.9918594 4.9678472,18.4037387 C4.54579445,19.3113209 3.93803848,19.6306554 5.00161142,20.1684819 C5.59248527,20.4710093 6.23400546,20.6726943 6.87552564,20.823958 C7.85468803,21.0592571 8.86761464,21.1937137 9.88054124,21.2273279 C10.0493623,21.2273279 9.93118757,23.3450198 9.88054124,23.5635118 C9.69483803,24.3870586 7.88845225,24.6223577 7.21316784,24.8072356 C6.61313443,24.9675047 5.67055401,25.0267294 5.21029092,25.5104768 C5.18906185,25.5169611 5.16863457,25.523451 5.14904359,25.5299523 C2.19467432,26.5047628 0,28.891368 0,32.2527837 L9.25139635,32.2527837 L13.4212775,32.2527837 C13.5424131,32.2527837 13.8538453,31.7765962 14.1483436,31.3074942 C14.359678,31.6280595 14.5265933,31.9658684 14.6244142,32.3199997 L28.1638665,32.3199997 C28.1304838,28.9799536 25.9682525,26.5928102 23.0477341,25.5971493 Z" id="Combined-Shape"></path>
                </g>
            </g>
        </g>
    </g>
</svg>